%YAML 1.1
%TAG !u! tag:unity3d.com,2011:
--- !u!687078895 &4343727234628468602
SpriteAtlas:
  m_ObjectHideFlags: 0
  m_CorrespondingSourceObject: {fileID: 0}
  m_PrefabInstance: {fileID: 0}
  m_PrefabAsset: {fileID: 0}
  m_Name: BuildingIconAtlas
  m_EditorData:
    serializedVersion: 2
    textureSettings:
      serializedVersion: 2
      anisoLevel: 1
      compressionQuality: 50
      maxTextureSize: 2048
      textureCompression: 0
      filterMode: 1
      generateMipMaps: 0
      readable: 0
      crunchedCompression: 0
      sRGB: 1
    platformSettings:
    - serializedVersion: 3
      m_BuildTarget: Android
      m_MaxTextureSize: 2048
      m_ResizeAlgorithm: 0
      m_TextureFormat: 47
      m_TextureCompression: 1
      m_CompressionQuality: 50
      m_CrunchedCompression: 0
      m_AllowsAlphaSplitting: 0
      m_Overridden: 1
      m_AndroidETC2FallbackOverride: 0
      m_ForceMaximumCompressionQuality_BC6H_BC7: 0
    - serializedVersion: 3
      m_BuildTarget: DefaultTexturePlatform
      m_MaxTextureSize: 2048
      m_ResizeAlgorithm: 0
      m_TextureFormat: -1
      m_TextureCompression: 1
      m_CompressionQuality: 50
      m_CrunchedCompression: 0
      m_AllowsAlphaSplitting: 0
      m_Overridden: 0
      m_AndroidETC2FallbackOverride: 0
      m_ForceMaximumCompressionQuality_BC6H_BC7: 0
    - serializedVersion: 3
      m_BuildTarget: iPhone
      m_MaxTextureSize: 2048
      m_ResizeAlgorithm: 0
      m_TextureFormat: 4
      m_TextureCompression: 1
      m_CompressionQuality: 50
      m_CrunchedCompression: 0
      m_AllowsAlphaSplitting: 0
      m_Overridden: 1
      m_AndroidETC2FallbackOverride: 0
      m_ForceMaximumCompressionQuality_BC6H_BC7: 0
    packingSettings:
      serializedVersion: 2
      padding: 4
      blockOffset: 1
      allowAlphaSplitting: 0
      enableRotation: 1
      enableTightPacking: 0
    variantMultiplier: 1
    packables:
    - {fileID: 102900000, guid: 2bce7e2a0603b4a769900c70f6b80a01, type: 3}
    - {fileID: 102900000, guid: 5ee97bc7fb9ec417db971802882136ee, type: 3}
    - {fileID: 102900000, guid: 94308bd8f4b984f2aafa00fdb5aea1cd, type: 3}
    - {fileID: 102900000, guid: 8bd2dfee560dc4594a37677ea98d3693, type: 3}
    - {fileID: 102900000, guid: 61d0d7ea511e2403fb02a0f6d6f0d2fa, type: 3}
    - {fileID: 102900000, guid: 0ff0f34444aa74560a885f19a4d7a89d, type: 3}
    - {fileID: 102900000, guid: 89ab97b98db7545b585552f0f0c43b1d, type: 3}
    totalSpriteSurfaceArea: 2307690
    bindAsDefault: 1
  m_MasterAtlas: {fileID: 0}
  m_PackedSprites:
  - {fileID: 21300000, guid: 3efae7502341241cea475f41c8ce86a6, type: 3}
  - {fileID: 21300000, guid: 098699c02a21040d6bb522b991ff6f5d, type: 3}
  - {fileID: 21300000, guid: b9e67fc00fbca4087b23a87ed1c2c591, type: 3}
  - {fileID: 21300000, guid: e5d00d1271dff4309b859a715208cc6b, type: 3}
  - {fileID: 21300000, guid: 44e5922234a5241cd9729b99277529ef, type: 3}
  - {fileID: 21300000, guid: 4eb4b832bfa3546d7b3a0f73fca0ab0e, type: 3}
  - {fileID: 21300000, guid: a924f552ed6b44a93a79a27d1b168684, type: 3}
  - {fileID: 21300000, guid: 683dbac2713f046c999d6ed35270125c, type: 3}
  - {fileID: 21300000, guid: c5b910033a0ca42429be2096647cb1ed, type: 3}
  - {fileID: 21300000, guid: 90b697136cb2140e49f5ed7cef806b94, type: 3}
  - {fileID: 21300000, guid: b492a33373f344973bbdd39872ba43a2, type: 3}
  - {fileID: 21300000, guid: a2a7fde3c5dca4e30b05fb130b13c007, type: 3}
  - {fileID: 21300000, guid: ca94013436d254d64ae152875d496ea7, type: 3}
  - {fileID: 21300000, guid: c0fe21642b28648c5ac1052ccfac17a6, type: 3}
  - {fileID: 21300000, guid: ab43ff05bba7b4e88bf299cae2c51119, type: 3}
  - {fileID: 21300000, guid: 62ea0d256c05d41079ec80974bba36b2, type: 3}
  - {fileID: 21300000, guid: 96dd2bc55d61d49e5a7b6c3c9032f200, type: 3}
  - {fileID: 21300000, guid: ed4bdd76d6a574ae0ba372765761aa39, type: 3}
  - {fileID: 21300000, guid: 9b64a7967300744f293f578108b3f7e2, type: 3}
  - {fileID: 21300000, guid: d762d0d6585bb4b69a742ac4b38cd396, type: 3}
  - {fileID: 21300000, guid: 3f39efd66fa844240b0c671a520a3070, type: 3}
  - {fileID: 21300000, guid: 774b19e6df18a4805b3ec933c20acc4b, type: 3}
  - {fileID: 21300000, guid: befd4ee69597744afa8d180f1ddb020e, type: 3}
  - {fileID: 21300000, guid: d3af85f63dd704e6196ed9af55e0169b, type: 3}
  - {fileID: 21300000, guid: 59498d075c4a74776a11b7e3a9911da1, type: 3}
  - {fileID: 21300000, guid: a8551267772ff45e4bc5c96d5102f497, type: 3}
  - {fileID: 21300000, guid: 77c2c887af2084ec8b58333c041ed6ca, type: 3}
  - {fileID: 21300000, guid: 840d20a7a23134ca0bd165c1e5424624, type: 3}
  - {fileID: 21300000, guid: 9f1dbff7cbb274cca8003a73cd106e3e, type: 3}
  - {fileID: 21300000, guid: 9c8bd91878a3e4fe8b957587c8a49e95, type: 3}
  - {fileID: 21300000, guid: 96363c188b1e1496fa930a132db20413, type: 3}
  - {fileID: 21300000, guid: b11e04286d4fe474f9a44f6a422ef0e7, type: 3}
  - {fileID: 21300000, guid: 95693528bf25f416f8d1d1d1b59de8ef, type: 3}
  - {fileID: 21300000, guid: 2ed8132983f3349878e7772c2e7eab2b, type: 3}
  - {fileID: 21300000, guid: 4c33ae2943017416688f03a90244b296, type: 3}
  - {fileID: 21300000, guid: 9d06b539bf2f84f6ead56ae33335f724, type: 3}
  - {fileID: 21300000, guid: 048e866937fdb408ea555c9a9e7297ea, type: 3}
  - {fileID: 21300000, guid: 49a28e69a17834f91bea51308eec5355, type: 3}
  - {fileID: 21300000, guid: 36da4b89ae95947d8920a1e20f478cc0, type: 3}
  - {fileID: 21300000, guid: 941b92a9488924847809bc914b5b3a5c, type: 3}
  - {fileID: 21300000, guid: 8011238a2da164c96b89088a36ca12ca, type: 3}
  - {fileID: 21300000, guid: 249b8dbad53ef469ab418d7a62239ef2, type: 3}
  - {fileID: 21300000, guid: 3fa044ca12c9542509222b37f1f24a84, type: 3}
  - {fileID: 21300000, guid: f2ab3bda0c7f34e2ea14c1a837bb770c, type: 3}
  - {fileID: 21300000, guid: d46df71be3316461fbaa8d363e809021, type: 3}
  - {fileID: 21300000, guid: 40003f2bd16d045199915af512632ac0, type: 3}
  - {fileID: 21300000, guid: d0dce96be85f044738e1b5e295d57ad8, type: 3}
  - {fileID: 21300000, guid: 12c2548ba922145cbbfbd2c6e7339e58, type: 3}
  - {fileID: 21300000, guid: bbccd4db1f30d48469443e2141673d41, type: 3}
  - {fileID: 21300000, guid: b8fda8db3278e41c4a153a585edfa573, type: 3}
  - {fileID: 21300000, guid: bceb6afbbaa5e441a9fc9a2d48d7e642, type: 3}
  - {fileID: 21300000, guid: 6fdbf73c660e24d408aaffbb9574e6af, type: 3}
  - {fileID: 21300000, guid: b4c032ac81bd248bb876d2a52bccbf26, type: 3}
  - {fileID: 21300000, guid: 751a5ffce75c94a05acb5638f23f8d00, type: 3}
  - {fileID: 21300000, guid: e5c8a60ddfc76480684f5caf413b4b3c, type: 3}
  - {fileID: 21300000, guid: 07150d3dd20bd4315ba5102df37b01e4, type: 3}
  - {fileID: 21300000, guid: 807d7e3d169d74ec3b104b6db75d6cee, type: 3}
  - {fileID: 21300000, guid: 8ca7ff5d5a71345a6a4d59f009709a34, type: 3}
  - {fileID: 21300000, guid: 44c478cdf9fe24699a1ccae7650572e0, type: 3}
  - {fileID: 21300000, guid: c0cda1dd7b63d4d4eab63ab3681005ae, type: 3}
  - {fileID: 21300000, guid: 8ac40cfda79f540798202faf11c2b336, type: 3}
  - {fileID: 21300000, guid: 89f9ee7e8d55e4213ba9751b73d7c728, type: 3}
  - {fileID: 21300000, guid: 4a303a0f11b7b4c75bf4e280938af503, type: 3}
  - {fileID: 21300000, guid: 7f3eaa2fa20cc47efb56ebcbb0caee28, type: 3}
  - {fileID: 21300000, guid: fb4a4fafd9b4c44cabe67ae6e983e8bf, type: 3}
  - {fileID: 21300000, guid: 4ecd65bf5e6654d9693ce29e4fad0d9f, type: 3}
  m_PackedSpriteNamesToIndex:
  - Mural
  - human_09_2
  - 4
  - SeoulStation
  - Finger
  - 1_1
  - human_09_3
  - human_08_3
  - 1_2
  - human_10_2
  - men2_00
  - 2_2
  - smoke_01
  - buildTimer
  - men4_01
  - howtoplay
  - tutorial_01
  - streetvendor
  - speech bubble_03
  - star
  - men2_00right
  - men3_02right
  - smoke_04
  - help
  - KoreanHouse
  - 1_3
  - crowd
  - Gwanghwamun
  - mallet_01
  - human_10_1
  - smoke_02
  - roulette_potion02
  - 2_3
  - theNamsanTower
  - JogyesaTemple
  - giftshop_object_01
  - speech bubble_04
  - effect_00
  - men3_03
  - crowd_dust_01
  - human_08_1
  - men3_00
  - men_00
  - men3_00left
  - 3
  - men3_01right
  - human_09_1
  - Myeongdong
  - men2_00left
  - men_00right
  - men3_01
  - honey_01
  - character_background_06
  - Gangnam
  - men_00left
  - moreinfo
  - honey_00
  - 2_1
  - crowd_dust_02
  - Sauna
  - 2
  - human_08_2
  - human_10_3
  - HanRiver
  - men3_02
  - smoke_03
  m_Tag: BuildingIconAtlas
  m_IsVariant: 0
